…
``` r
data <- 
  readRDS(here::here("data", "derived", "data_cleaned.rds"))
```

``` r
data %>% 
  group_by(species_mix, plot) %>% 
  summarise(n_species = n_distinct(genus_species)) %>% 
  arrange(plot)
```

    # A tibble: 142 × 3
    # Groups:   species_mix [18]
       species_mix   plot  n_species
       <fct>         <fct>     <int>
     1 4-species(13) 001           6
     2 monoculture   002           1
     3 16-species    003          16
     4 monoculture   004           1
     5 16-species    005          16
     6 4-species(6)  006           4
     7 monoculture   007           1
     8 16-species    008          16
     9 4-species(3)  009           6
    10 monoculture   010           1
    # ℹ 132 more rows
…
